SplineFontDB: 3.2
FontName: WhitespaceMono
FullName: WhitespaceMono
FamilyName: WhitespaceMono
Weight: Regular
Copyright: Copyright (c) 2020, Julien Lepiller
UComments: "2020-11-13: Created with FontForge (http://fontforge.org)"
Version: 001.000
ItalicAngle: 0
UnderlinePosition: -99
UnderlineWidth: 49
Ascent: 1638
Descent: 410
InvalidEm: 0
LayerCount: 2
Layer: 0 0 "Arri+AOgA-re" 1
Layer: 1 0 "Avant" 0
XUID: [1021 976 1692031623 15344048]
StyleMap: 0x0000
FSType: 0
OS2Version: 0
OS2_WeightWidthSlopeOnly: 0
OS2_UseTypoMetrics: 1
CreationTime: 1605296929
ModificationTime: 1630066041
OS2TypoAscent: 0
OS2TypoAOffset: 1
OS2TypoDescent: 0
OS2TypoDOffset: 1
OS2TypoLinegap: 90
OS2WinAscent: 0
OS2WinAOffset: 1
OS2WinDescent: 0
OS2WinDOffset: 1
HheadAscent: 0
HheadAOffset: 1
HheadDescent: 0
HheadDOffset: 1
OS2Vendor: 'PfEd'
MarkAttachClasses: 1
DEI: 91125
Encoding: UnicodeFull
UnicodeInterp: none
NameList: AGL For New Fonts
DisplaySize: -48
AntiAlias: 1
FitToEm: 0
WinInfo: 0 38 15
BeginPrivate: 0
EndPrivate
Grid
-1000 393 m 0
 2000 393 l 1024
EndSplineSet
BeginChars: 1114112 4

StartChar: space
Encoding: 32 32 0
Width: 870
VWidth: 1000
Flags: HW
HStem: 211 90
VStem: 389.5 91
LayerCount: 2
Fore
SplineSet
402.5 290 m 5
 448.5 301 l 5
 480.5 267 l 5
 466.5 222 l 5
 420.5 211 l 5
 389.5 245 l 5
 402.5 290 l 5
EndSplineSet
EndChar

StartChar: uni00A0
Encoding: 160 160 1
Width: 870
VWidth: 1000
InSpiro: 1
Flags: HW
HStem: 53 53<317 553>
VStem: 287 30<108 225> 553 30<103 234>
LayerCount: 2
Fore
SplineSet
287 225 m 1
 317 225 l 0
 317 108 l 1
 552.999023438 104 l 25
 552.999023438 234 l 0
 583 234 l 0
 583 54 l 0
 287 54 l 0
 287 225 l 1
EndSplineSet
EndChar

StartChar: uni0009
Encoding: 9 9 2
Width: 870
VWidth: 1000
Flags: HW
HStem: 174 52<364.5 698.5> 506 52<557.5 891.5>
VStem: 375.5 56<422 528 536 659> 825.5 56<91 195 204 328>
LayerCount: 2
Fore
SplineSet
688.5 328 m 1
 688.5 91 l 0
 631.5 91 l 0
 631.5 195 l 25
 505.5 91 l 0
 505.5 174 l 0
 171.5 176 l 0
 171.5 228 l 0
 505.5 226 l 0
 505.5 328 l 0
 631.5 204 l 25
 631.5 328 l 0
 688.5 328 l 1
181.5 659 m 1
 236.5 659 l 0
 238.5 536 l 25
 364.5 659 l 0
 364.5 558 l 0
 698.5 559 l 0
 698.5 508 l 0
 364.5 506 l 0
 363.5 422 l 0
 236.5 528 l 25
 236.5 422 l 0
 181.5 422 l 0
 181.5 659 l 1
EndSplineSet
EndChar

StartChar: uni202F
Encoding: 8239 8239 3
Width: 870
VWidth: 1000
Flags: HW
HStem: 53 53<578 676>
VStem: 549 30<108 225> 676 30<108 223>
LayerCount: 2
Fore
SplineSet
357 225 m 1
 386 225 l 0
 386 108 l 1
 484 108 l 25
 484 223 l 0
 513 223 l 0
 513 53 l 0
 357 53 l 0
 357 225 l 1
EndSplineSet
EndChar
EndChars
EndSplineFont
